UNC Health Charges
…
## 
## i Use `spec()` to retrieve the full column specification for this data.
## i Specify the column types or set `show_col_types = FALSE` to quiet this message.

Introduction

Data

Lets take a quick look at the data with glimpse

charges

## # A tibble: 5,011 x 42
##    `Facility Name` `Charge Description`    `CPT/HCPCS` Price  Min    Max   Aetna
##    <chr>           <chr>                   <chr>       <chr>  <chr>  <chr> <chr>
##  1 UNC Hospital    Cardiac valve and othe~ MS-DRG: 216 $236,~ $40,2~ $157~ $124~
##  2 UNC Hospital    Cervical spinal fusion~ MS-DRG: 473 $56,2~ $2,35~ $58,~ $22,~
##  3 UNC Hospital    CESAREAN DELIVERY ONLY  MS-DRG: 788 $16,6~ $5,50~ $15,~ $12,~
##  4 UNC Hospital    Major joint replacemen~ MS-DRG: 470 $49,3~ $4,15~ $49,~ $40,~
##  5 UNC Hospital    NORMAL NEWBORN          MS-DRG: 795 $2,88~ $600.~ $2,8~ $2,3~
##  6 UNC Hospital    OBSTETRICAL CARE,VAG D~ MS-DRG: 807 $10,2~ $3,32~ $9,9~ $7,1~
##  7 UNC Hospital    Spinal fusion except c~ MS-DRG: 460 $73,9~ $24,9~ $76,~ $32,~
##  8 UNC Hospital    Uterine and adnexa pro~ MS-DRG: 743 $27,9~ $2,77~ $27,~ $10,~
##  9 UNC Hospital    HC UNCH PRIVATE ROOM    <NA>        $1,95~ $0.00  $0.00 $0.00
## 10 UNC Hospital    HC HBR PRIVATE ROOM     <NA>        $1,95~ $0.00  $0.00 $0.00
## # ... with 5,001 more rows, and 35 more variables:
## #   Aetna Medicare Advantage <chr>,
## #   Americas First Choice Medicare Advantage <chr>, BCBS <chr>,
## #   BCBS Medicare Advantage <chr>, BCBS UNC Health Alliance <chr>,
## #   Blue Home <chr>, Cash Discount <chr>, Cigna <chr>,
## #   Cigna Behavioral Health <chr>, Cigna Connect Network <chr>,
## #   Cigna SureFit <chr>, Crescent <chr>, First Carolina Care <chr>, ...
…
